id,name,model_id:id,group_id:id,perm_read,perm_write,perm_create,perm_unlink
access_branch_user,branch user,dvksp_base.model_res_branch,base.group_branch_user,1,1,1,0
access_branch_manager,branch manager,dvksp_base.model_res_branch,base.group_branch_manager,1,1,1,1
